<?xml version="1.0" encoding="UTF-8" standalone="no"?>
<svg
   enable-background="new"
   sodipodi:docname="logo.svg"
   inkscape:version="1.2 (dc2aedaf03, 2022-05-15)"
   id="svg8"
   version="1.1"
   viewBox="0 0 82.146004 80"
   height="80mm"
   width="82.146004mm"
   xmlns:inkscape="http://www.inkscape.org/namespaces/inkscape"
   xmlns:sodipodi="http://sodipodi.sourceforge.net/DTD/sodipodi-0.dtd"
   xmlns="http://www.w3.org/2000/svg"
   xmlns:svg="http://www.w3.org/2000/svg"
   xmlns:rdf="http://www.w3.org/1999/02/22-rdf-syntax-ns#"
   xmlns:cc="http://creativecommons.org/ns#"
   xmlns:dc="http://purl.org/dc/elements/1.1/">
  <defs
     id="defs2">
    <clipPath
       id="clipPath2493"
       clipPathUnits="userSpaceOnUse">
      <ellipse
         ry="40"
         rx="41.073002"
         cy="93.547462"
         cx="96.316956"
         id="ellipse2495"
         style="display:inline;fill:#ffffff;fill-opacity:0.887879;stroke-width:0.268109" />
    </clipPath>
  </defs>
  <sodipodi:namedview
     inkscape:window-maximized="1"
     inkscape:window-y="23"
     inkscape:window-x="0"
     inkscape:window-height="1415"
     inkscape:window-width="3438"
     inkscape:document-rotation="0"
     showgrid="false"
     inkscape:current-layer="g120"
     inkscape:document-units="mm"
     inkscape:cy="268.70058"
     inkscape:cx="252.03306"
     inkscape:zoom="0.9899495"
     inkscape:pageshadow="2"
     inkscape:pageopacity="0.0"
     borderopacity="1.0"
     bordercolor="#666666"
     pagecolor="#ffffff"
     id="base"
     fit-margin-top="0"
     fit-margin-left="0"
     fit-margin-right="0"
     fit-margin-bottom="0"
     inkscape:showpageshadow="0"
     inkscape:pagecheckerboard="0"
     inkscape:deskcolor="#d1d1d1" />
  <metadata
     id="metadata5">
    <rdf:RDF>
      <cc:Work
         rdf:about="">
        <dc:format>image/svg+xml</dc:format>
        <dc:type
           rdf:resource="http://purl.org/dc/dcmitype/StillImage" />
        <dc:title />
      </cc:Work>
    </rdf:RDF>
  </metadata>
  <g
     style="display:none"
     inkscape:label="Layer 2"
     id="layer2"
     inkscape:groupmode="layer"
     transform="translate(-60.45571,-98.047839)">
    <rect
       y="79.663689"
       x="37.230656"
       height="117.1726"
       width="128.7009"
       id="rect2452"
       style="display:inline;opacity:1;fill:#cccccc;fill-opacity:1;fill-rule:nonzero;stroke-width:0.323198" />
  </g>
  <g
     style="display:inline"
     id="layer1"
     inkscape:groupmode="layer"
     inkscape:label="Layer 1"
     transform="translate(-60.45571,-98.047839)">
    <g
       style="display:inline"
       transform="translate(5.2117561,44.500377)"
       id="g120">
      <ellipse
         inkscape:export-ydpi="154.6225"
         inkscape:export-xdpi="154.6225"
         inkscape:export-filename="/tmp/test.png"
         style="display:inline;fill:#ffffff;fill-opacity:0.887879;stroke-width:0.268109"
         id="ellipse2484"
         cx="96.316956"
         cy="93.547462"
         rx="41.073002"
         ry="40" />
      <path
         inkscape:export-ydpi="309.245"
         inkscape:export-xdpi="309.245"
         inkscape:export-filename="/tmp/test.png"
         clip-path="url(#clipPath2493)"
         mask="none"
         inkscape:connector-curvature="0"
         id="path122"
         d="m 89.838817,163.6751 c -0.04584,-0.11944 -0.08334,-5.09304 -0.08334,-11.05243 v -10.83526 h -0.40097 c -0.220533,0 -1.348087,-0.0636 -2.505676,-0.14124 -10.436329,-0.70039 -20.048479,-2.61237 -29.426869,-5.85341 l -1.922162,-0.66427 -0.03526,-9.4962 -0.03526,-9.49621 2.575261,1.20464 c 8.261512,3.86451 15.647196,6.10554 23.76937,7.21232 2.244409,0.30583 5.816552,0.62019 7.05481,0.62084 l 1.064054,5.6e-4 v -11.38642 c 0,-10.72604 -0.01394,-11.39048 -0.24027,-11.45637 -0.132149,-0.0385 -1.136136,-0.23053 -2.231082,-0.4268 C 78.430073,100.29311 71.512188,98.057183 66.63371,95.186045 59.441632,90.953282 55.767272,84.549789 55.315081,75.4605 c -0.4401,-8.846268 1.799065,-15.544513 6.906274,-20.659443 3.387947,-3.39307 7.126639,-5.62298 12.3054,-7.339449 3.971714,-1.316399 10.675963,-2.468184 14.369568,-2.468678 l 0.85706,-1.15e-4 0.03537,-8.478109 0.03537,-8.478108 5.86946,-0.0358 5.869467,-0.0358 v 8.31227 c 0,6.531599 0.0368,8.322989 0.17162,8.362304 0.0944,0.02752 1.31462,0.153541 2.71162,0.280051 7.26086,0.657533 15.16071,1.996301 22.82568,3.868214 l 3.6727,0.896934 v 9.186994 c 0,5.052847 -0.049,9.186993 -0.10893,9.186993 -0.0599,0 -0.78588,-0.271877 -1.61325,-0.604171 -8.17918,-3.284974 -18.12116,-5.596878 -26.11485,-6.072732 l -1.54459,-0.09195 v 10.568633 10.568633 l 1.40729,0.242099 c 9.24826,1.590997 14.52599,3.008346 19.4619,5.226546 9.13929,4.107206 13.68108,10.436168 14.8301,20.665644 0.22036,1.96186 0.18204,6.78478 -0.0693,8.71837 -1.90258,14.63826 -12.74251,22.47767 -33.50192,24.22849 -0.90616,0.0764 -1.75568,0.13959 -1.88783,0.14037 -0.22684,0.001 -0.24027,0.62306 -0.24027,11.1225 v 11.12108 h -5.820453 c -5.18083,0 -5.829605,-0.0239 -5.903784,-0.21718 z m 14.703153,-38.9225 c 5.117,-0.57058 8.38632,-2.81567 9.44679,-6.48725 0.79326,-2.74644 0.33741,-6.75028 -1.00445,-8.82222 -1.74187,-2.6896 -4.75976,-4.05995 -10.83775,-4.92115 l -0.58351,-0.0827 v 10.23027 10.23027 h 0.82919 c 0.45606,0 1.42344,-0.0663 2.14973,-0.14724 z M 89.892776,71.156054 c 0,-5.243733 -0.05087,-9.565499 -0.113045,-9.603926 -0.222507,-0.137517 -3.199701,0.338283 -4.312867,0.68926 -3.004854,0.94742 -5.30534,2.732711 -6.346168,4.924941 -0.61867,1.303067 -0.802531,2.19933 -0.786635,3.834583 0.04258,4.379729 2.310274,7.279879 6.874785,8.792134 0.926189,0.306854 3.642588,0.876127 4.237714,0.888094 l 0.446216,0.009 z"
         style="display:inline;opacity:1;fill:#2962ff;fill-opacity:1;fill-rule:nonzero;stroke-width:0.137297" />
    </g>
  </g>
</svg>
