[
{
    "model": "sitetree.tree",
    "pk": 1,
    "fields": {
        "title": "",
        "alias": "main"
    }
},
{
    "model": "core.navigationtreeitem",
    "pk": 1,
    "fields": {
        "title": "Dashboard",
        "hint": "",
        "url": "dashboard",
        "urlaspattern": true,
        "tree": 1,
        "hidden": false,
        "alias": null,
        "description": "",
        "inmenu": true,
        "inbreadcrumbs": true,
        "insitetree": true,
        "access_loggedin": false,
        "access_guest": false,
        "access_restricted": false,
        "access_perm_type": 1,
        "parent": null,
        "sort_order": 1,
        "icon": "clipboard2-data",
        "access_permissions": []
    }
},
{
    "model": "core.navigationtreeitem",
    "pk": 2,
    "fields": {
        "title": "Shares",
        "hint": "",
        "url": "shares:overview",
        "urlaspattern": true,
        "tree": 1,
        "hidden": false,
        "alias": null,
        "description": "",
        "inmenu": true,
        "inbreadcrumbs": true,
        "insitetree": true,
        "access_loggedin": false,
        "access_guest": false,
        "access_restricted": false,
        "access_perm_type": 1,
        "parent": null,
        "sort_order": 3,
        "icon": "briefcase",
        "access_permissions": []
    }
},
{
    "model": "core.navigationtreeitem",
    "pk": 3,
    "fields": {
        "title": "Transactions",
        "hint": "",
        "url": "transactions:index",
        "urlaspattern": true,
        "tree": 1,
        "hidden": false,
        "alias": null,
        "description": "",
        "inmenu": true,
        "inbreadcrumbs": true,
        "insitetree": true,
        "access_loggedin": false,
        "access_guest": false,
        "access_restricted": false,
        "access_perm_type": 1,
        "parent": null,
        "sort_order": 28,
        "icon": "arrow-left-right",
        "access_permissions": []
    }
},
{
    "model": "core.navigationtreeitem",
    "pk": 4,
    "fields": {
        "title": "Share detail",
        "hint": "",
        "url": "shares:share_detail object.pk",
        "urlaspattern": true,
        "tree": 1,
        "hidden": false,
        "alias": null,
        "description": "",
        "inmenu": false,
        "inbreadcrumbs": true,
        "insitetree": true,
        "access_loggedin": false,
        "access_guest": false,
        "access_restricted": false,
        "access_perm_type": 1,
        "parent": 2,
        "sort_order": 4,
        "icon": null,
        "access_permissions": []
    }
},
{
    "model": "core.navigationtreeitem",
    "pk": 5,
    "fields": {
        "title": "News",
        "hint": "",
        "url": "news:dashboard",
        "urlaspattern": true,
        "tree": 1,
        "hidden": false,
        "alias": null,
        "description": "",
        "inmenu": true,
        "inbreadcrumbs": true,
        "insitetree": true,
        "access_loggedin": false,
        "access_guest": false,
        "access_restricted": false,
        "access_perm_type": 1,
        "parent": null,
        "sort_order": 2,
        "icon": "newspaper",
        "access_permissions": []
    }
},
{
    "model": "core.navigationtreeitem",
    "pk": 6,
    "fields": {
        "title": "Update item",
        "hint": "",
        "url": "shares:update_share object.pk",
        "urlaspattern": true,
        "tree": 1,
        "hidden": false,
        "alias": null,
        "description": "",
        "inmenu": false,
        "inbreadcrumbs": true,
        "insitetree": true,
        "access_loggedin": false,
        "access_guest": false,
        "access_restricted": false,
        "access_perm_type": 1,
        "parent": 2,
        "sort_order": 6,
        "icon": null,
        "access_permissions": []
    }
},
{
    "model": "core.navigationtreeitem",
    "pk": 7,
    "fields": {
        "title": "Coins",
        "hint": "",
        "url": "coins:overview",
        "urlaspattern": true,
        "tree": 1,
        "hidden": false,
        "alias": null,
        "description": "",
        "inmenu": true,
        "inbreadcrumbs": true,
        "insitetree": true,
        "access_loggedin": false,
        "access_guest": false,
        "access_restricted": false,
        "access_perm_type": 1,
        "parent": null,
        "sort_order": 7,
        "icon": "currency-bitcoin",
        "access_permissions": []
    }
},
{
    "model": "core.navigationtreeitem",
    "pk": 8,
    "fields": {
        "title": "Update coin",
        "hint": "",
        "url": "coins:update_coin object.pk",
        "urlaspattern": true,
        "tree": 1,
        "hidden": false,
        "alias": null,
        "description": "",
        "inmenu": false,
        "inbreadcrumbs": true,
        "insitetree": true,
        "access_loggedin": false,
        "access_guest": false,
        "access_restricted": false,
        "access_perm_type": 1,
        "parent": 7,
        "sort_order": 8,
        "icon": null,
        "access_permissions": []
    }
},
{
    "model": "core.navigationtreeitem",
    "pk": 9,
    "fields": {
        "title": "Coin detail",
        "hint": "",
        "url": "coins:coin_detail object.pk",
        "urlaspattern": true,
        "tree": 1,
        "hidden": false,
        "alias": null,
        "description": "",
        "inmenu": false,
        "inbreadcrumbs": true,
        "insitetree": true,
        "access_loggedin": false,
        "access_guest": false,
        "access_restricted": false,
        "access_perm_type": 1,
        "parent": 7,
        "sort_order": 9,
        "icon": null,
        "access_permissions": []
    }
},
{
    "model": "core.navigationtreeitem",
    "pk": 10,
    "fields": {
        "title": "Update transaction",
        "hint": "",
        "url": "transactions:update object.pk",
        "urlaspattern": true,
        "tree": 1,
        "hidden": false,
        "alias": null,
        "description": "",
        "inmenu": false,
        "inbreadcrumbs": true,
        "insitetree": true,
        "access_loggedin": false,
        "access_guest": false,
        "access_restricted": false,
        "access_perm_type": 1,
        "parent": 3,
        "sort_order": 10,
        "icon": null,
        "access_permissions": []
    }
},
{
    "model": "core.navigationtreeitem",
    "pk": 11,
    "fields": {
        "title": "Item detail",
        "hint": "",
        "url": "news:detail object.pk",
        "urlaspattern": true,
        "tree": 1,
        "hidden": false,
        "alias": null,
        "description": "",
        "inmenu": false,
        "inbreadcrumbs": true,
        "insitetree": true,
        "access_loggedin": false,
        "access_guest": false,
        "access_restricted": false,
        "access_perm_type": 1,
        "parent": 5,
        "sort_order": 11,
        "icon": null,
        "access_permissions": []
    }
},
{
    "model": "core.navigationtreeitem",
    "pk": 12,
    "fields": {
        "title": "Assets",
        "hint": "",
        "url": "transactions:assets",
        "urlaspattern": true,
        "tree": 1,
        "hidden": false,
        "alias": null,
        "description": "",
        "inmenu": true,
        "inbreadcrumbs": true,
        "insitetree": true,
        "access_loggedin": false,
        "access_guest": false,
        "access_restricted": false,
        "access_perm_type": 1,
        "parent": 3,
        "sort_order": 14,
        "icon": null,
        "access_permissions": []
    }
},
{
    "model": "core.navigationtreeitem",
    "pk": 13,
    "fields": {
        "title": "Closed transactions",
        "hint": "",
        "url": "transactions:closed",
        "urlaspattern": true,
        "tree": 1,
        "hidden": false,
        "alias": null,
        "description": "",
        "inmenu": true,
        "inbreadcrumbs": true,
        "insitetree": true,
        "access_loggedin": false,
        "access_guest": false,
        "access_restricted": false,
        "access_perm_type": 1,
        "parent": 3,
        "sort_order": 13,
        "icon": null,
        "access_permissions": []
    }
},
{
    "model": "core.navigationtreeitem",
    "pk": 14,
    "fields": {
        "title": "Open transactions",
        "hint": "",
        "url": "transactions:open",
        "urlaspattern": true,
        "tree": 1,
        "hidden": false,
        "alias": null,
        "description": "",
        "inmenu": true,
        "inbreadcrumbs": true,
        "insitetree": true,
        "access_loggedin": false,
        "access_guest": false,
        "access_restricted": false,
        "access_perm_type": 1,
        "parent": 3,
        "sort_order": 12,
        "icon": null,
        "access_permissions": []
    }
},
{
    "model": "core.navigationtreeitem",
    "pk": 15,
    "fields": {
        "title": "Transaction detail",
        "hint": "",
        "url": "transactions:open_detail object.pk",
        "urlaspattern": true,
        "tree": 1,
        "hidden": false,
        "alias": null,
        "description": "",
        "inmenu": false,
        "inbreadcrumbs": true,
        "insitetree": true,
        "access_loggedin": false,
        "access_guest": false,
        "access_restricted": false,
        "access_perm_type": 1,
        "parent": 14,
        "sort_order": 15,
        "icon": null,
        "access_permissions": []
    }
},
{
    "model": "core.navigationtreeitem",
    "pk": 16,
    "fields": {
        "title": "Transaction detail",
        "hint": "",
        "url": "transactions:closed_detail object.pk",
        "urlaspattern": true,
        "tree": 1,
        "hidden": false,
        "alias": null,
        "description": "",
        "inmenu": false,
        "inbreadcrumbs": true,
        "insitetree": true,
        "access_loggedin": false,
        "access_guest": false,
        "access_restricted": false,
        "access_perm_type": 1,
        "parent": 13,
        "sort_order": 16,
        "icon": null,
        "access_permissions": []
    }
},
{
    "model": "core.navigationtreeitem",
    "pk": 17,
    "fields": {
        "title": "Performance",
        "hint": "",
        "url": "shares:performance object.pk",
        "urlaspattern": true,
        "tree": 1,
        "hidden": false,
        "alias": null,
        "description": "",
        "inmenu": true,
        "inbreadcrumbs": true,
        "insitetree": true,
        "access_loggedin": false,
        "access_guest": false,
        "access_restricted": false,
        "access_perm_type": 1,
        "parent": 4,
        "sort_order": 17,
        "icon": null,
        "access_permissions": []
    }
},
{
    "model": "core.navigationtreeitem",
    "pk": 18,
    "fields": {
        "title": "Performance",
        "hint": "",
        "url": "coins:performance object.pk",
        "urlaspattern": true,
        "tree": 1,
        "hidden": false,
        "alias": null,
        "description": "",
        "inmenu": true,
        "inbreadcrumbs": true,
        "insitetree": true,
        "access_loggedin": false,
        "access_guest": false,
        "access_restricted": false,
        "access_perm_type": 1,
        "parent": 9,
        "sort_order": 18,
        "icon": null,
        "access_permissions": []
    }
},
{
    "model": "core.navigationtreeitem",
    "pk": 19,
    "fields": {
        "title": "Dividends",
        "hint": "",
        "url": "shares:dividends object.pk",
        "urlaspattern": true,
        "tree": 1,
        "hidden": false,
        "alias": null,
        "description": "",
        "inmenu": false,
        "inbreadcrumbs": true,
        "insitetree": true,
        "access_loggedin": false,
        "access_guest": false,
        "access_restricted": false,
        "access_perm_type": 1,
        "parent": 4,
        "sort_order": 19,
        "icon": null,
        "access_permissions": []
    }
},
{
    "model": "core.navigationtreeitem",
    "pk": 20,
    "fields": {
        "title": "Dividend transaction detail",
        "hint": "",
        "url": "transactions:dividend_detail object.pk",
        "urlaspattern": true,
        "tree": 1,
        "hidden": false,
        "alias": null,
        "description": "",
        "inmenu": false,
        "inbreadcrumbs": true,
        "insitetree": true,
        "access_loggedin": false,
        "access_guest": false,
        "access_restricted": false,
        "access_perm_type": 1,
        "parent": 3,
        "sort_order": 20,
        "icon": null,
        "access_permissions": []
    }
},
{
    "model": "core.navigationtreeitem",
    "pk": 21,
    "fields": {
        "title": "Splitter",
        "hint": "",
        "url": "shares:splitter",
        "urlaspattern": true,
        "tree": 1,
        "hidden": false,
        "alias": null,
        "description": "",
        "inmenu": true,
        "inbreadcrumbs": true,
        "insitetree": true,
        "access_loggedin": false,
        "access_guest": false,
        "access_restricted": true,
        "access_perm_type": 2,
        "parent": 2,
        "sort_order": 21,
        "icon": null,
        "access_permissions": []
    }
},
{
    "model": "core.navigationtreeitem",
    "pk": 22,
    "fields": {
        "title": "Preview",
        "hint": "",
        "url": "shares:splitter_preview",
        "urlaspattern": true,
        "tree": 1,
        "hidden": false,
        "alias": null,
        "description": "",
        "inmenu": true,
        "inbreadcrumbs": true,
        "insitetree": true,
        "access_loggedin": false,
        "access_guest": false,
        "access_restricted": true,
        "access_perm_type": 2,
        "parent": 21,
        "sort_order": 22,
        "icon": null,
        "access_permissions": []
    }
},
{
    "model": "core.navigationtreeitem",
    "pk": 23,
    "fields": {
        "title": "Financials",
        "hint": "",
        "url": "shares:financials object.pk",
        "urlaspattern": true,
        "tree": 1,
        "hidden": false,
        "alias": null,
        "description": "",
        "inmenu": true,
        "inbreadcrumbs": true,
        "insitetree": true,
        "access_loggedin": false,
        "access_guest": false,
        "access_restricted": false,
        "access_perm_type": 1,
        "parent": 4,
        "sort_order": 23,
        "icon": null,
        "access_permissions": []
    }
},
{
    "model": "core.navigationtreeitem",
    "pk": 24,
    "fields": {
        "title": "Indexes",
        "hint": "",
        "url": "indexes:overview",
        "urlaspattern": true,
        "tree": 1,
        "hidden": false,
        "alias": null,
        "description": "",
        "inmenu": true,
        "inbreadcrumbs": true,
        "insitetree": true,
        "access_loggedin": false,
        "access_guest": false,
        "access_restricted": false,
        "access_perm_type": 1,
        "parent": null,
        "sort_order": 5,
        "icon": "file-earmark-arrow-up",
        "access_permissions": []
    }
},
{
    "model": "core.navigationtreeitem",
    "pk": 25,
    "fields": {
        "title": "Update index",
        "hint": "",
        "url": "indexes:update_index object.pk",
        "urlaspattern": true,
        "tree": 1,
        "hidden": false,
        "alias": null,
        "description": "",
        "inmenu": false,
        "inbreadcrumbs": true,
        "insitetree": true,
        "access_loggedin": false,
        "access_guest": false,
        "access_restricted": false,
        "access_perm_type": 1,
        "parent": 24,
        "sort_order": 24,
        "icon": null,
        "access_permissions": []
    }
},
{
    "model": "core.navigationtreeitem",
    "pk": 26,
    "fields": {
        "title": "Index detail",
        "hint": "",
        "url": "indexes:index_detail object.pk",
        "urlaspattern": true,
        "tree": 1,
        "hidden": false,
        "alias": null,
        "description": "",
        "inmenu": false,
        "inbreadcrumbs": true,
        "insitetree": true,
        "access_loggedin": false,
        "access_guest": false,
        "access_restricted": false,
        "access_perm_type": 1,
        "parent": 25,
        "sort_order": 25,
        "icon": null,
        "access_permissions": []
    }
},
{
    "model": "core.navigationtreeitem",
    "pk": 27,
    "fields": {
        "title": "Performance",
        "hint": "",
        "url": "indexes:performance object.pk",
        "urlaspattern": true,
        "tree": 1,
        "hidden": false,
        "alias": null,
        "description": "",
        "inmenu": true,
        "inbreadcrumbs": true,
        "insitetree": true,
        "access_loggedin": false,
        "access_guest": false,
        "access_restricted": false,
        "access_perm_type": 1,
        "parent": 26,
        "sort_order": 26,
        "icon": null,
        "access_permissions": []
    }
},
{
    "model": "core.navigationtreeitem",
    "pk": 28,
    "fields": {
        "title": "ETFs",
        "hint": "",
        "url": "etfs:overview",
        "urlaspattern": true,
        "tree": 1,
        "hidden": false,
        "alias": null,
        "description": "",
        "inmenu": true,
        "inbreadcrumbs": true,
        "insitetree": true,
        "access_loggedin": false,
        "access_guest": false,
        "access_restricted": false,
        "access_perm_type": 1,
        "parent": null,
        "sort_order": 5,
        "icon": "boxes",
        "access_permissions": []
    }
},
{
    "model": "core.navigationtreeitem",
    "pk": 29,
    "fields": {
        "title": "Update ETF",
        "hint": "",
        "url": "etfs:update_etf object.pk",
        "urlaspattern": true,
        "tree": 1,
        "hidden": false,
        "alias": null,
        "description": "",
        "inmenu": false,
        "inbreadcrumbs": true,
        "insitetree": true,
        "access_loggedin": false,
        "access_guest": false,
        "access_restricted": false,
        "access_perm_type": 1,
        "parent": 28,
        "sort_order": 29,
        "icon": null,
        "access_permissions": []
    }
},
{
    "model": "core.navigationtreeitem",
    "pk": 30,
    "fields": {
        "title": "ETF detail",
        "hint": "",
        "url": "etfs:etf_detail object.pk",
        "urlaspattern": true,
        "tree": 1,
        "hidden": false,
        "alias": null,
        "description": "",
        "inmenu": false,
        "inbreadcrumbs": true,
        "insitetree": true,
        "access_loggedin": false,
        "access_guest": false,
        "access_restricted": false,
        "access_perm_type": 1,
        "parent": 28,
        "sort_order": 30,
        "icon": null,
        "access_permissions": []
    }
},
{
    "model": "core.navigationtreeitem",
    "pk": 31,
    "fields": {
        "title": "The Eye",
        "hint": "",
        "url": "core:the_eye slug",
        "urlaspattern": true,
        "tree": 1,
        "hidden": false,
        "alias": null,
        "description": "",
        "inmenu": false,
        "inbreadcrumbs": true,
        "insitetree": true,
        "access_loggedin": false,
        "access_guest": false,
        "access_restricted": false,
        "access_perm_type": 1,
        "parent": null,
        "sort_order": 31,
        "icon": null,
        "access_permissions": []
    }
},
{
    "model": "core.navigationtreeitem",
    "pk": 32,
    "fields": {
        "title": "Staking",
        "hint": "",
        "url": "staking:index",
        "urlaspattern": true,
        "tree": 1,
        "hidden": false,
        "alias": null,
        "description": "",
        "inmenu": true,
        "inbreadcrumbs": true,
        "insitetree": true,
        "access_loggedin": false,
        "access_guest": false,
        "access_restricted": false,
        "access_perm_type": 1,
        "parent": null,
        "sort_order": 32,
        "icon": "database-lock",
        "access_permissions": []
    }
},
{
    "model": "core.navigationtreeitem",
    "pk": 33,
    "fields": {
        "title": "Open stakings",
        "hint": "",
        "url": "staking:open",
        "urlaspattern": true,
        "tree": 1,
        "hidden": false,
        "alias": null,
        "description": "",
        "inmenu": true,
        "inbreadcrumbs": true,
        "insitetree": true,
        "access_loggedin": false,
        "access_guest": false,
        "access_restricted": false,
        "access_perm_type": 1,
        "parent": 32,
        "sort_order": 33,
        "icon": null,
        "access_permissions": []
    }
},
{
    "model": "core.navigationtreeitem",
    "pk": 34,
    "fields": {
        "title": "Update staking",
        "hint": "",
        "url": "staking:update object.pk",
        "urlaspattern": true,
        "tree": 1,
        "hidden": false,
        "alias": null,
        "description": "",
        "inmenu": false,
        "inbreadcrumbs": true,
        "insitetree": true,
        "access_loggedin": false,
        "access_guest": false,
        "access_restricted": false,
        "access_perm_type": 1,
        "parent": 32,
        "sort_order": 34,
        "icon": null,
        "access_permissions": []
    }
},
{
    "model": "core.navigationtreeitem",
    "pk": 35,
    "fields": {
        "title": "Closed stakings",
        "hint": "",
        "url": "staking:closed",
        "urlaspattern": true,
        "tree": 1,
        "hidden": false,
        "alias": null,
        "description": "",
        "inmenu": true,
        "inbreadcrumbs": true,
        "insitetree": true,
        "access_loggedin": false,
        "access_guest": false,
        "access_restricted": false,
        "access_perm_type": 1,
        "parent": 32,
        "sort_order": 35,
        "icon": null,
        "access_permissions": []
    }
},
{
    "model": "core.navigationtreeitem",
    "pk": 36,
    "fields": {
        "title": "Performance",
        "hint": "",
        "url": "etfs:performance object.pk",
        "urlaspattern": true,
        "tree": 1,
        "hidden": false,
        "alias": null,
        "description": "",
        "inmenu": true,
        "inbreadcrumbs": true,
        "insitetree": true,
        "access_loggedin": false,
        "access_guest": false,
        "access_restricted": false,
        "access_perm_type": 1,
        "parent": 30,
        "sort_order": 36,
        "icon": null,
        "access_permissions": []
    }
},
{
    "model": "core.navigationtreeitem",
    "pk": 37,
    "fields": {
        "title": "Post closed/closing procedure",
        "hint": "",
        "url": "transactions:post_closed_or_closing_form object.pk",
        "urlaspattern": true,
        "tree": 1,
        "hidden": false,
        "alias": null,
        "description": "",
        "inmenu": false,
        "inbreadcrumbs": true,
        "insitetree": true,
        "access_loggedin": false,
        "access_guest": false,
        "access_restricted": false,
        "access_perm_type": 1,
        "parent": 13,
        "sort_order": 37,
        "icon": null,
        "access_permissions": []
    }
}
]
